{
  "buildFiles": [
    "/home/qpay/android-project/customerapp/app/src/main/jni/Android.mk",
    "/home/qpay/android-project/customerapp/app/src/main/jni/Application.mk"
  ],
  "cleanCommands": [
    "/home/qpay/Android/Sdk/ndk-bundle/ndk-build NDK_PROJECT_PATH\u003dnull APP_BUILD_SCRIPT\u003d/home/qpay/android-project/customerapp/app/src/main/jni/Android.mk NDK_APPLICATION_MK\u003d/home/qpay/android-project/customerapp/app/src/main/jni/Application.mk APP_ABI\u003darm64-v8a NDK_ALL_ABIS\u003darm64-v8a NDK_DEBUG\u003d0 APP_PLATFORM\u003dandroid-19 NDK_OUT\u003d/home/qpay/android-project/customerapp/app/build/intermediates/ndkBuild/lintOptions/obj NDK_LIBS_OUT\u003d/home/qpay/android-project/customerapp/app/build/intermediates/ndkBuild/lintOptions/lib clean"
  ],
  "libraries": {
    "qppauwyqpalieyqoajasda-lintOptions-arm64-v8a": {
      "buildCommand": "/home/qpay/Android/Sdk/ndk-bundle/ndk-build NDK_PROJECT_PATH\u003dnull APP_BUILD_SCRIPT\u003d/home/qpay/android-project/customerapp/app/src/main/jni/Android.mk NDK_APPLICATION_MK\u003d/home/qpay/android-project/customerapp/app/src/main/jni/Application.mk APP_ABI\u003darm64-v8a NDK_ALL_ABIS\u003darm64-v8a NDK_DEBUG\u003d0 APP_PLATFORM\u003dandroid-19 NDK_OUT\u003d/home/qpay/android-project/customerapp/app/build/intermediates/ndkBuild/lintOptions/obj NDK_LIBS_OUT\u003d/home/qpay/android-project/customerapp/app/build/intermediates/ndkBuild/lintOptions/lib /home/qpay/android-project/customerapp/app/build/intermediates/ndkBuild/lintOptions/obj/local/arm64-v8a/libqppauwyqpalieyqoajasda.so",
      "toolchain": "toolchain-arm64-v8a",
      "abi": "arm64-v8a",
      "artifactName": "qppauwyqpalieyqoajasda",
      "files": [
        {
          "src": "/home/qpay/android-project/customerapp/app/src/main/jni/qppauwyqpalieyqoajasda.c",
          "flags": "-target aarch64-none-linux-android21 -fdata-sections -ffunction-sections -fstack-protector-strong -funwind-tables -no-canonical-prefixes --sysroot /home/qpay/Android/Sdk/ndk-bundle/toolchains/llvm/prebuilt/linux-x86_64/sysroot -g -Wno-invalid-command-line-argument -Wno-unused-command-line-argument -fno-addrsig -fpic -O2 -DNDEBUG -I/home/qpay/android-project/customerapp/app/src/main/jni -DANDROID -Wa,--noexecstack -Wformat -Werror\u003dformat-security"
        }
      ],
      "output": "/home/qpay/android-project/customerapp/app/build/intermediates/ndkBuild/lintOptions/obj/local/arm64-v8a/libqppauwyqpalieyqoajasda.so"
    }
  },
  "toolchains": {
    "toolchain-arm64-v8a": {
      "cCompilerExecutable": "/home/qpay/Android/Sdk/ndk-bundle/toolchains/llvm/prebuilt/linux-x86_64/bin/clang"
    }
  },
  "cFileExtensions": [
    "c"
  ],
  "cppFileExtensions": []
}